1,Cyril Helen Gigaba,2003/11/22
2,Pravin Cyril Ramaphosa,2015/09/29
3,Nelson Jacob Zuma,1985/03/20
4,Nelson Jacob Zuma,2001/03/14
5,Atul Jacob Mandela,1980/07/26
6,Jackson Malusi Gupta,2006/02/10
7,Cyril Malusi Mthembu,2017/12/25
8,Helen Malusi Maimane,1996/09/29
9,Malusi Jacob Mbeki,1992/08/10
10,Mmusi Mmusi Zuma,1992/06/14
11,Nelson Cyril Gigaba,1983/11/24
12,Nelson Malusi Ramaphosa,1985/10/25
13,Atul Nelson Mbeki,1993/01/16
14,Jacob Pravin Gordhan,2001/02/02
15,Malusi Malusi Gupta,1991/02/16
16,Malusi Jacob Gigaba,2001/02/21
17,Mmusi Jackson Ramaphosa,2000/12/09
18,Jackson Jackson Mandela,1992/07/25
19,Cyril Helen Mandela,2010/03/10
20,Cyril Nelson Zuma,1987/12/04
21,Nelson Malusi Mbeki,2000/11/04
22,Pravin Mmusi Gupta,2002/01/15
23,Thabo Thabo Maimane,2016/11/17
24,Jackson Nelson Mandela,2009/05/15
25,Helen Helen Gupta,2002/01/31
26,Nelson Jackson Zuma,2000/03/21
27,Mmusi Helen Zuma,2004/03/16
28,Jacob Helen Mbeki,2014/01/07
29,Mmusi Cyril Zuma,2014/01/08
30,Pravin Atul Mbeki,1999/12/24
31,Jacob Helen Mthembu,1980/09/04
32,Helen Thabo Gigaba,2011/11/04
33,Cyril Pravin Mthembu,1993/08/16
34,Atul Jacob Mthembu,2011/06/19
35,Jackson Cyril Mbeki,1993/10/11
36,Jackson Jacob Mbeki,1991/11/22
37,Helen Malusi Gupta,1983/10/18
38,Malusi Malusi Gupta,2010/09/13
39,Helen Malusi Mbeki,2019/04/23
40,Atul Jackson Zuma,2001/02/25
41,Jacob Pravin Ramaphosa,1993/04/09
42,Thabo Malusi Mbeki,1996/04/03
43,Jackson Cyril Zuma,1998/12/28
44,Helen Pravin Maimane,1999/06/14
45,Nelson Mmusi Ramaphosa,2005/05/24
46,Pravin Pravin Mthembu,1981/09/04
47,Nelson Thabo Mandela,2019/11/13
48,Mmusi Cyril Gigaba,2012/06/13
49,Jacob Atul Gordhan,1995/12/05
50,Nelson Jackson Gupta,1985/11/10
51,Jacob Pravin Mthembu,1986/03/26
52,Cyril Cyril Mthembu,2010/11/22
53,Pravin Malusi Ramaphosa,1987/06/23
54,Mmusi Malusi Mbeki,1985/06/22
55,Cyril Mmusi Gordhan,1995/02/28
56,Thabo Thabo Mbeki,1980/07/12
57,Mmusi Mmusi Gordhan,2017/03/09
58,Jacob Jacob Gigaba,1989/08/16
59,Nelson Atul Mthembu,2012/01/07
60,Malusi Jacob Gigaba,1997/08/24
61,Nelson Pravin Maimane,1982/01/08
62,Malusi Jacob Zuma,1998/09/24
63,Malusi Atul Zuma,2014/05/15
64,Malusi Cyril Gupta,1994/03/11
65,Mmusi Malusi Gupta,1989/10/08
66,Cyril Cyril Zuma,2004/06/20
67,Helen Thabo Zuma,1987/03/19
68,Atul Malusi Zuma,2000/12/28
69,Jacob Malusi Mbeki,1980/01/23
70,Thabo Malusi Zuma,2001/12/06
71,Atul Jacob Gupta,2000/10/10
72,Atul Helen Zuma,1986/04/23
73,Jacob Helen Maimane,2010/12/29
74,Atul Atul Zuma,1991/01/06
75,Jacob Malusi Gupta,1984/03/07
76,Cyril Cyril Mandela,2012/04/25
77,Pravin Jacob Gupta,1987/10/06
78,Mmusi Nelson Gordhan,1981/12/30
79,Cyril Jacob Ramaphosa,1995/10/04
80,Thabo Jackson Gigaba,2019/11/17
81,Atul Helen Mandela,2003/08/28
82,Pravin Jackson Zuma,1989/07/22
83,Nelson Mmusi Gordhan,1989/10/15
84,Mmusi Thabo Mandela,1984/11/22
85,Cyril Cyril Zuma,1985/02/23
86,Cyril Thabo Maimane,2007/07/04
87,Mmusi Atul Gordhan,2003/12/24
88,Jackson Pravin Ramaphosa,1981/05/22
89,Jackson Cyril Gupta,1987/02/08
90,Helen Cyril Mandela,2008/09/24
91,Malusi Mmusi Gordhan,2008/09/30
92,Mmusi Pravin Gordhan,2001/09/09
93,Atul Jacob Gordhan,1997/06/14
94,Malusi Malusi Zuma,2000/01/23
95,Pravin Helen Zuma,1994/11/16
96,Atul Helen Ramaphosa,1999/06/18
97,Atul Malusi Gordhan,2009/01/27
98,Jacob Nelson Gupta,1993/02/24
99,Jackson Cyril Mbeki,2017/11/10
100,Thabo Helen Mandela,1986/12/22
