493,2017/12/01,841.83
392,2017/07/25,847.71
253,2017/04/21,290.64
723,2017/12/30,877.18
296,2017/02/11,322.01
483,2017/03/03,471.85
668,2017/10/10,176.21
731,2017/04/26,690.1
186,2017/09/23,467.76
792,2017/02/20,355.11
635,2017/11/09,518.65
657,2017/08/13,131.67
947,2017/10/01,156.35
846,2017/04/03,195.56
546,2017/06/12,1.77
390,2017/02/27,68.67
329,2017/10/14,989.07
304,2017/10/05,154.19
9,2017/11/16,293.55
900,2017/06/07,313.49
534,2017/12/19,233.24
643,2017/08/03,831.97
627,2017/12/26,583.95
529,2017/01/02,599.54
527,2017/04/01,187.8
891,2017/07/15,728.98
45,2017/01/13,615.96
324,2017/09/02,20.35
121,2017/07/04,891.34
770,2017/04/18,191.87
941,2017/06/25,105.62
919,2017/11/20,98.94
107,2017/05/07,943.7
250,2017/12/28,887.78
124,2017/04/23,221.39
740,2017/02/18,233.08
951,2017/11/07,158.99
607,2017/06/18,218.66
173,2017/12/06,161.19
777,2017/02/27,685.07
41,2017/03/26,807.56
799,2017/09/03,810.21
508,2017/09/05,827.55
805,2017/10/14,551.15
598,2017/03/20,338.33
578,2017/08/15,272.47
585,2017/10/15,156.76
961,2017/06/05,256.03
879,2017/07/09,700.66
187,2017/05/02,836.89
411,2017/05/23,807.52
456,2017/06/17,72.21
837,2017/07/12,705.74
485,2017/03/20,225.29
998,2017/07/18,657.64
328,2017/02/05,961.44
163,2017/10/11,283.16
695,2017/09/23,201.08
54,2017/10/10,894.26
408,2017/09/22,677.5
88,2017/06/16,996.45
690,2017/05/13,691.47
978,2017/10/01,413.72
856,2017/07/31,554.57
986,2017/02/20,784.49
374,2017/06/28,151.59
355,2017/10/08,771.84
348,2017/04/17,734.81
724,2017/03/05,591.47
937,2017/07/11,967.72
298,2017/04/30,42.99
730,2017/07/14,761.5
970,2017/12/12,338.67
560,2017/06/25,165.96
150,2017/05/11,658.99
472,2017/08/28,480.62
128,2017/11/27,574.55
36,2017/03/04,506.89
788,2017/07/26,603.87
592,2017/11/27,54.28
600,2017/11/14,117.59
935,2017/11/06,203.32
78,2017/01/04,240.33
484,2017/02/02,593.34
265,2017/08/12,77.44
949,2017/06/19,999.68
214,2017/07/11,536.76
331,2017/12/16,464.56
889,2017/03/01,805.06
757,2017/05/26,196.09
600,2017/09/22,550.73
2,2017/09/16,719.12
373,2017/08/27,581.14
566,2017/01/14,388.62
60,2017/03/01,705.18
788,2017/04/14,324.64
564,2017/06/02,204.87
835,2017/11/10,229.71
537,2017/12/21,668.47
468,2017/06/18,962.2
408,2017/06/05,91.31
695,2017/06/17,388.33
876,2017/09/18,517.13
342,2017/08/13,72.42
21,2017/05/22,25.53
714,2017/01/03,109.59
176,2017/05/17,322.37
514,2017/06/02,601.31
968,2017/11/18,355.72
875,2017/08/28,336.55
284,2017/05/25,356.99
97,2017/03/12,507.23
266,2017/10/21,134.85
628,2017/10/26,264.66
257,2017/02/13,768.61
215,2017/07/18,543.94
636,2017/09/18,541.69
698,2017/02/09,449.89
353,2017/01/23,808.57
0,2017/01/05,133.02
593,2017/11/20,827.31
227,2017/07/31,186.49
218,2017/08/26,542.55
460,2017/02/17,280.21
968,2017/08/21,41.56
351,2017/07/30,808.77
345,2017/02/20,399.64
548,2017/04/12,475.78
695,2017/09/11,897.08
688,2017/10/15,853.48
808,2017/04/21,941.15
98,2017/08/02,348
41,2017/05/14,324.09
451,2017/04/19,645.51
242,2017/11/01,848.5
109,2017/06/04,511.82
970,2017/01/25,559.82
749,2017/03/06,839.04
322,2017/11/30,341.33
643,2017/04/02,571.12
894,2017/05/09,999.81
967,2017/02/08,760.06
792,2017/08/05,43.03
6,2017/04/06,593.75
471,2017/09/18,516.06
627,2017/12/20,53.26
596,2017/08/14,709.78
169,2017/11/05,582.18
868,2017/01/29,518.26
804,2017/04/25,137.29
817,2017/11/08,232.73
609,2017/11/01,510.73
795,2017/10/19,699.28
299,2017/12/10,317.08
404,2017/08/18,909.8
789,2017/10/29,391.92
929,2017/08/17,165.08
118,2017/11/04,90.43
387,2017/02/09,164.08
110,2017/01/22,569.74
469,2017/11/29,501.53
767,2017/03/30,218.32
47,2017/12/10,660.44
160,2017/07/11,16.73
297,2017/07/01,276.98
923,2017/03/08,504.42
651,2017/02/12,139.92
655,2017/12/24,834.79
153,2017/11/05,519.67
233,2017/06/28,948.66
908,2017/10/19,253.59
524,2017/07/27,426.01
603,2017/02/03,842.44
520,2017/11/14,3.87
416,2017/12/25,233.07
86,2017/05/19,910.39
70,2017/06/18,115.14
762,2017/12/08,70.91
503,2017/03/17,384.36
210,2017/12/22,321.15
883,2017/09/13,906.24
196,2017/05/19,119.46
197,2017/03/07,134.86
429,2017/09/20,906.47
288,2017/01/11,330.16
947,2017/02/06,415.71
110,2017/06/14,700.29
37,2017/11/25,507.88
408,2017/03/24,445.72
41,2017/09/20,777.23
489,2017/03/16,368.91
748,2017/10/19,471.04
109,2017/08/15,953.55
679,2017/06/29,556.95
639,2017/02/19,924.87
133,2017/01/01,873.57
943,2017/11/10,636.75
113,2017/09/11,684.86
609,2017/02/06,850.69
269,2017/02/21,27.62
859,2017/05/13,778.87
422,2017/12/02,564.98
846,2017/02/25,660.75
203,2017/05/22,231.37
381,2017/07/13,677.36
54,2017/10/11,439.27
700,2017/02/28,23.33
194,2017/01/04,604
822,2017/11/11,347.98
386,2017/10/25,987.05
178,2017/08/16,228.23
939,2017/04/19,542.81
56,2017/07/14,587.01
0,2017/11/25,429.58
765,2017/07/31,50.07
724,2017/11/29,889.07
518,2017/06/06,723.1
589,2017/11/29,254.02
984,2017/04/23,144.36
700,2017/03/28,280.57
134,2017/01/03,649.54
722,2017/01/17,859.87
219,2017/05/07,793.96
868,2017/03/18,404.5
71,2017/12/28,80.05
608,2017/07/20,962.61
958,2017/05/28,98.27
960,2017/04/23,943.17
51,2017/03/29,417.63
932,2017/08/24,465.81
107,2017/03/02,565.15
221,2017/08/03,927.92
686,2017/02/23,165.97
725,2017/11/13,732.43
393,2017/07/09,528.1
330,2017/12/01,983.37
214,2017/03/30,446.83
641,2017/12/09,749.39
4,2017/08/28,866.3
32,2017/02/23,554.32
906,2017/07/15,914.17
500,2017/11/13,587.05
630,2017/05/26,155
994,2017/05/04,661.78
403,2017/12/26,177.16
634,2017/08/07,806
225,2017/01/08,616.56
822,2017/09/27,32.46
871,2017/03/11,759.39
648,2017/02/27,58.18
987,2017/08/21,79.68
522,2017/04/25,587.69
265,2017/07/28,630.13
288,2017/03/04,68.15
185,2017/12/24,584.62
640,2017/08/11,262.97
11,2017/07/13,446.19
546,2017/10/20,462.32
253,2017/09/26,297.08
867,2017/03/09,958.62
581,2017/06/30,839.27
564,2017/06/14,539.87
834,2017/10/03,11.22
777,2017/02/25,94.75
652,2017/07/28,373.54
668,2017/05/10,49.11
459,2017/10/01,734.4
576,2017/11/14,760.34
924,2017/01/26,182.09
58,2017/07/09,346.17
328,2017/08/02,651.74
881,2017/12/13,806.65
375,2017/10/05,768.6
271,2017/09/03,970.42
937,2017/12/03,168.25
793,2017/10/19,439.25
100,2017/09/21,31.39
504,2017/07/03,671.72
969,2017/08/02,719.12
931,2017/03/18,910.85
225,2017/10/13,232.65
444,2017/10/16,269.63
621,2017/05/07,626.07
839,2017/01/03,808.55
755,2017/03/22,393.97
355,2017/03/15,412.93
20,2017/08/24,457.8
471,2017/05/22,164.83
353,2017/06/08,452.04
974,2017/11/03,340.15
309,2017/02/03,127.62
142,2017/02/07,200.19
117,2017/04/05,454.69
162,2017/02/02,117.78
588,2017/01/14,328.97
224,2017/12/19,928.71
835,2017/06/21,117.3
597,2017/05/31,552.5
302,2017/01/13,871.71
805,2017/02/13,124.15
865,2017/11/22,193.78
495,2017/08/18,37.39
216,2017/01/05,37.77
422,2017/05/11,254.44
262,2017/04/30,343.23
931,2017/05/08,999.05
149,2017/12/27,223.88
302,2017/03/28,946.86
492,2017/09/15,495.49
684,2017/08/22,363.82
598,2017/08/03,882.73
683,2017/05/18,343.77
654,2017/01/06,133.02
233,2017/05/14,555.83
208,2017/11/03,110.28
556,2017/10/10,350.41
27,2017/02/14,415.94
491,2017/06/29,978.12
386,2017/01/23,158.06
993,2017/07/16,261.73
897,2017/04/27,679.33
562,2017/11/15,710.41
797,2017/12/29,673.44
367,2017/09/12,584.31
628,2017/06/05,528.15
436,2017/12/02,282.88
962,2017/02/23,589.15
225,2017/10/31,42.1
309,2017/04/23,545.34
870,2017/11/29,855.22
64,2017/02/03,295.19
489,2017/09/29,771.54
828,2017/04/12,512.32
650,2017/12/13,943.61
405,2017/07/10,31.89
285,2017/10/21,571.87
751,2017/05/04,18.69
176,2017/08/13,995.49
960,2017/08/25,342.41
195,2017/12/23,780.51
545,2017/04/19,409.22
141,2017/03/05,613.06
814,2017/05/30,916.08
535,2017/08/07,891.28
213,2017/11/01,181.3
920,2017/07/28,71.01
347,2017/06/17,240.82
903,2017/11/20,424.84
161,2017/05/18,204.67
408,2017/07/10,962.7
492,2017/04/10,163.63
366,2017/08/15,796.09
748,2017/08/08,488.04
680,2017/05/27,340.92
468,2017/08/05,732.58
847,2017/04/24,2.37
24,2017/10/08,663.15
532,2017/08/26,595.65
581,2017/04/02,561.79
918,2017/09/21,878.97
905,2017/10/19,897.25
625,2017/03/07,530.78
179,2017/07/15,422.89
348,2017/01/25,435.51
501,2017/01/28,578.43
793,2017/02/08,665.21
253,2017/10/09,822.06
872,2017/08/16,396.55
267,2017/05/07,846.01
590,2017/09/05,691.16
900,2017/02/09,971.24
911,2017/09/19,524.3
925,2017/10/03,859.27
123,2017/08/04,273.26
715,2017/12/03,805.15
725,2017/02/21,599.01
54,2017/04/14,613.17
215,2017/02/16,966.89
774,2017/02/01,532.74
650,2017/01/26,74.11
989,2017/07/30,118.03
602,2017/01/13,972.69
515,2017/04/28,642.48
255,2017/02/01,408.81
801,2017/12/15,863.15
863,2017/12/11,726.25
684,2017/08/31,304.92
551,2017/08/20,909.6
395,2017/06/08,680.31
32,2017/07/19,948.18
252,2017/10/15,734.71
439,2017/12/17,585.31
24,2017/11/25,413.33
149,2017/10/12,749.3
790,2017/06/24,285.56
182,2017/04/27,36.7
724,2017/12/03,183.49
798,2017/02/24,699.36
866,2017/02/28,857.76
910,2017/05/28,762.05
305,2017/01/22,518.27
165,2017/08/28,424.6
16,2017/05/09,597.03
578,2017/07/06,464.33
678,2017/07/02,182.18
974,2017/04/30,300.87
156,2017/11/26,856.74
151,2017/01/18,993.31
857,2017/01/14,213.37
232,2017/03/14,153.44
833,2017/12/10,982.46
980,2017/02/14,447.57
975,2017/08/29,428.52
314,2017/10/20,563.17
990,2017/08/13,658.34
490,2017/03/16,696.82
551,2017/03/11,511.27
606,2017/06/12,410.98
76,2017/06/26,329.44
709,2017/03/14,163.96
92,2017/04/26,745.32
418,2017/03/07,668.64
495,2017/02/08,582.11
546,2017/10/27,129.13
112,2017/02/17,493.78
875,2017/06/19,163.29
329,2017/02/28,326.49
95,2017/03/01,84.73
306,2017/02/03,659.98
384,2017/07/13,107.02
347,2017/11/14,181.04
447,2017/11/30,780.57
456,2017/11/20,592.31
550,2017/09/11,589.7
996,2017/06/12,607.94
900,2017/04/22,552.61
430,2017/11/24,217.28
47,2017/09/10,984.43
921,2017/04/11,92.08
612,2017/04/02,326.38
7,2017/04/14,599.84
873,2017/07/15,309.61
324,2017/06/22,992.56
285,2017/12/26,327.97
319,2017/08/23,638.74
750,2017/01/30,30.21
61,2017/10/09,626.83
169,2017/05/16,20.75
352,2017/09/16,207.38
663,2017/06/02,562.9
605,2017/01/27,671.57
699,2017/11/26,114.98
842,2017/02/20,746.86
545,2017/02/02,875.8
757,2017/04/15,83.07
624,2017/09/05,670.58
466,2017/05/17,107.86
929,2017/01/01,43.33
468,2017/07/27,451.26
800,2017/07/10,329.6
805,2017/08/26,321.95
504,2017/12/04,429.91
448,2017/02/14,7.53
995,2017/01/04,575.57
122,2017/05/30,960.37
95,2017/04/21,333.98
681,2017/11/12,405.95
901,2017/06/16,620.92
948,2017/06/05,809.58
284,2017/01/29,424.07
858,2017/02/11,890.29
452,2017/07/07,71.34
198,2017/10/10,757.93
140,2017/08/25,144.07
687,2017/02/16,546.58
109,2017/05/25,907.86
958,2017/07/03,46.76
872,2017/02/14,452.94
696,2017/01/22,21.4
363,2017/11/07,562.5
43,2017/11/24,391.44
545,2017/04/08,796.28
989,2017/01/22,360.44
0,2017/10/26,942.65
607,2017/07/31,924.55
981,2017/10/28,83.54
65,2017/06/07,490.2
834,2017/08/01,182.07
831,2017/11/02,453.05
192,2017/05/05,663.87
816,2017/01/09,327.56
368,2017/07/12,663
822,2017/12/18,155.38
580,2017/10/13,857.55
945,2017/05/06,557.58
995,2017/11/23,464.32
542,2017/10/05,571.82
282,2017/01/10,506.79
5,2017/01/11,769.2
46,2017/12/29,844.66
